[
  {
    "title": "Incididunt ex reprehenderit aliquip labore tempor enim amet cillum duis.",
    "body": "<figure class=\"image image-style-align-left\"><img src=\"http://web.utrack/uploads/images/carousel_1(4).jpg\"></figure><p style=\"margin-left:280px;\"><span style=\"color:hsl(0,0%,0%);\">Lorem ipsum dolor sit amet, consectetur adipiscing elit, sed do eiusmod tempor incididunt ut labore et dolore magna aliqua. Urna cursus eget nunc scelerisque viverra. Urna molestie at elementum eu facilisis sed odio morbi. Tristique senectus et netus et malesuada. Feugiat pretium nibh ipsum consequat nisl vel pretium lectus. Id nibh tortor id aliquet lectus proin. Morbi leo urna molestie at elementum eu. Aliquam vestibulum morbi blandit cursus risus at. Aliquet lectus proin nibh nisl. Ullamcorper morbi tincidunt ornare massa eget. Vestibulum morbi blandit cursus risus at ultrices mi tempus imperdiet. Hac habitasse platea dictumst vestibulum rhoncus est pellentesque. Vitae tempus quam pellentesque nec nam aliquam sem. Sit amet nisl suscipit adipiscing bibendum est ultricies integer.</span></p><p style=\"text-align:justify;\"><span style=\"color:hsl(0,0%,0%);\">Lorem ipsum dolor sit amet, consectetur adipiscing elit, sed do eiusmod tempor incididunt ut labore et dolore magna aliqua. Urna cursus eget nunc scelerisque viverra. Urna molestie at elementum eu facilisis sed odio morbi. Tristique senectus et netus et malesuada. Feugiat pretium nibh ipsum consequat nisl vel pretium lectus. Id nibh tortor id aliquet lectus proin. Morbi leo urna molestie at elementum eu. Aliquam vestibulum morbi blandit cursus risus at. Aliquet lectus proin nibh nisl. Ullamcorper morbi tincidunt ornare massa eget. Vestibulum morbi blandit cursus risus at ultrices mi tempus imperdiet. Hac habitasse platea dictumst vestibulum rhoncus est pellentesque. Vitae tempus quam pellentesque nec nam aliquam sem. Sit amet nisl suscipit adipiscing bibendum est ultricies integer.</span></p><figure class=\"image\"><img src=\"http://web.utrack/uploads/images/carousel_2.jpg\"></figure>",
    "cover": "http://web.utrack/images/images.png",
    "tags": "aliqua cupidatat nulla enim ipsum"
  },
  {
    "title": "Esse incididunt ex nulla Lorem veniam.",
    "body": "<figure class=\"image image-style-align-left\"><img src=\"http://web.utrack/uploads/images/carousel_1(4).jpg\"></figure><p style=\"margin-left:280px;\"><span style=\"color:hsl(0,0%,0%);\">Lorem ipsum dolor sit amet, consectetur adipiscing elit, sed do eiusmod tempor incididunt ut labore et dolore magna aliqua. Urna cursus eget nunc scelerisque viverra. Urna molestie at elementum eu facilisis sed odio morbi. Tristique senectus et netus et malesuada. Feugiat pretium nibh ipsum consequat nisl vel pretium lectus. Id nibh tortor id aliquet lectus proin. Morbi leo urna molestie at elementum eu. Aliquam vestibulum morbi blandit cursus risus at. Aliquet lectus proin nibh nisl. Ullamcorper morbi tincidunt ornare massa eget. Vestibulum morbi blandit cursus risus at ultrices mi tempus imperdiet. Hac habitasse platea dictumst vestibulum rhoncus est pellentesque. Vitae tempus quam pellentesque nec nam aliquam sem. Sit amet nisl suscipit adipiscing bibendum est ultricies integer.</span></p><p style=\"text-align:justify;\"><span style=\"color:hsl(0,0%,0%);\">Lorem ipsum dolor sit amet, consectetur adipiscing elit, sed do eiusmod tempor incididunt ut labore et dolore magna aliqua. Urna cursus eget nunc scelerisque viverra. Urna molestie at elementum eu facilisis sed odio morbi. Tristique senectus et netus et malesuada. Feugiat pretium nibh ipsum consequat nisl vel pretium lectus. Id nibh tortor id aliquet lectus proin. Morbi leo urna molestie at elementum eu. Aliquam vestibulum morbi blandit cursus risus at. Aliquet lectus proin nibh nisl. Ullamcorper morbi tincidunt ornare massa eget. Vestibulum morbi blandit cursus risus at ultrices mi tempus imperdiet. Hac habitasse platea dictumst vestibulum rhoncus est pellentesque. Vitae tempus quam pellentesque nec nam aliquam sem. Sit amet nisl suscipit adipiscing bibendum est ultricies integer.</span></p><figure class=\"image\"><img src=\"http://web.utrack/uploads/images/carousel_2.jpg\"></figure>",
    "cover": "http://web.utrack/images/images.png",
    "tags": "deserunt sit dolor est nostrud"
  },
  {
    "title": "Dolore id dolor dolore voluptate.",
    "body": "<figure class=\"image image-style-align-left\"><img src=\"http://web.utrack/uploads/images/carousel_1(4).jpg\"></figure><p style=\"margin-left:280px;\"><span style=\"color:hsl(0,0%,0%);\">Lorem ipsum dolor sit amet, consectetur adipiscing elit, sed do eiusmod tempor incididunt ut labore et dolore magna aliqua. Urna cursus eget nunc scelerisque viverra. Urna molestie at elementum eu facilisis sed odio morbi. Tristique senectus et netus et malesuada. Feugiat pretium nibh ipsum consequat nisl vel pretium lectus. Id nibh tortor id aliquet lectus proin. Morbi leo urna molestie at elementum eu. Aliquam vestibulum morbi blandit cursus risus at. Aliquet lectus proin nibh nisl. Ullamcorper morbi tincidunt ornare massa eget. Vestibulum morbi blandit cursus risus at ultrices mi tempus imperdiet. Hac habitasse platea dictumst vestibulum rhoncus est pellentesque. Vitae tempus quam pellentesque nec nam aliquam sem. Sit amet nisl suscipit adipiscing bibendum est ultricies integer.</span></p><p style=\"text-align:justify;\"><span style=\"color:hsl(0,0%,0%);\">Lorem ipsum dolor sit amet, consectetur adipiscing elit, sed do eiusmod tempor incididunt ut labore et dolore magna aliqua. Urna cursus eget nunc scelerisque viverra. Urna molestie at elementum eu facilisis sed odio morbi. Tristique senectus et netus et malesuada. Feugiat pretium nibh ipsum consequat nisl vel pretium lectus. Id nibh tortor id aliquet lectus proin. Morbi leo urna molestie at elementum eu. Aliquam vestibulum morbi blandit cursus risus at. Aliquet lectus proin nibh nisl. Ullamcorper morbi tincidunt ornare massa eget. Vestibulum morbi blandit cursus risus at ultrices mi tempus imperdiet. Hac habitasse platea dictumst vestibulum rhoncus est pellentesque. Vitae tempus quam pellentesque nec nam aliquam sem. Sit amet nisl suscipit adipiscing bibendum est ultricies integer.</span></p><figure class=\"image\"><img src=\"http://web.utrack/uploads/images/carousel_2.jpg\"></figure>",
    "cover": "http://web.utrack/images/images.png",
    "tags": "consectetur sit sint elit proident"
  },
  {
    "title": "Non magna labore amet id esse sunt do mollit.",
    "body": "<figure class=\"image image-style-align-left\"><img src=\"http://web.utrack/uploads/images/carousel_1(4).jpg\"></figure><p style=\"margin-left:280px;\"><span style=\"color:hsl(0,0%,0%);\">Lorem ipsum dolor sit amet, consectetur adipiscing elit, sed do eiusmod tempor incididunt ut labore et dolore magna aliqua. Urna cursus eget nunc scelerisque viverra. Urna molestie at elementum eu facilisis sed odio morbi. Tristique senectus et netus et malesuada. Feugiat pretium nibh ipsum consequat nisl vel pretium lectus. Id nibh tortor id aliquet lectus proin. Morbi leo urna molestie at elementum eu. Aliquam vestibulum morbi blandit cursus risus at. Aliquet lectus proin nibh nisl. Ullamcorper morbi tincidunt ornare massa eget. Vestibulum morbi blandit cursus risus at ultrices mi tempus imperdiet. Hac habitasse platea dictumst vestibulum rhoncus est pellentesque. Vitae tempus quam pellentesque nec nam aliquam sem. Sit amet nisl suscipit adipiscing bibendum est ultricies integer.</span></p><p style=\"text-align:justify;\"><span style=\"color:hsl(0,0%,0%);\">Lorem ipsum dolor sit amet, consectetur adipiscing elit, sed do eiusmod tempor incididunt ut labore et dolore magna aliqua. Urna cursus eget nunc scelerisque viverra. Urna molestie at elementum eu facilisis sed odio morbi. Tristique senectus et netus et malesuada. Feugiat pretium nibh ipsum consequat nisl vel pretium lectus. Id nibh tortor id aliquet lectus proin. Morbi leo urna molestie at elementum eu. Aliquam vestibulum morbi blandit cursus risus at. Aliquet lectus proin nibh nisl. Ullamcorper morbi tincidunt ornare massa eget. Vestibulum morbi blandit cursus risus at ultrices mi tempus imperdiet. Hac habitasse platea dictumst vestibulum rhoncus est pellentesque. Vitae tempus quam pellentesque nec nam aliquam sem. Sit amet nisl suscipit adipiscing bibendum est ultricies integer.</span></p><figure class=\"image\"><img src=\"http://web.utrack/uploads/images/carousel_2.jpg\"></figure>",
    "cover": "http://web.utrack/images/images.png",
    "tags": "eiusmod ad mollit labore veniam"
  },
  {
    "title": "Nostrud ea id aliquip ut anim sit ut labore.",
    "body": "<figure class=\"image image-style-align-left\"><img src=\"http://web.utrack/uploads/images/carousel_1(4).jpg\"></figure><p style=\"margin-left:280px;\"><span style=\"color:hsl(0,0%,0%);\">Lorem ipsum dolor sit amet, consectetur adipiscing elit, sed do eiusmod tempor incididunt ut labore et dolore magna aliqua. Urna cursus eget nunc scelerisque viverra. Urna molestie at elementum eu facilisis sed odio morbi. Tristique senectus et netus et malesuada. Feugiat pretium nibh ipsum consequat nisl vel pretium lectus. Id nibh tortor id aliquet lectus proin. Morbi leo urna molestie at elementum eu. Aliquam vestibulum morbi blandit cursus risus at. Aliquet lectus proin nibh nisl. Ullamcorper morbi tincidunt ornare massa eget. Vestibulum morbi blandit cursus risus at ultrices mi tempus imperdiet. Hac habitasse platea dictumst vestibulum rhoncus est pellentesque. Vitae tempus quam pellentesque nec nam aliquam sem. Sit amet nisl suscipit adipiscing bibendum est ultricies integer.</span></p><p style=\"text-align:justify;\"><span style=\"color:hsl(0,0%,0%);\">Lorem ipsum dolor sit amet, consectetur adipiscing elit, sed do eiusmod tempor incididunt ut labore et dolore magna aliqua. Urna cursus eget nunc scelerisque viverra. Urna molestie at elementum eu facilisis sed odio morbi. Tristique senectus et netus et malesuada. Feugiat pretium nibh ipsum consequat nisl vel pretium lectus. Id nibh tortor id aliquet lectus proin. Morbi leo urna molestie at elementum eu. Aliquam vestibulum morbi blandit cursus risus at. Aliquet lectus proin nibh nisl. Ullamcorper morbi tincidunt ornare massa eget. Vestibulum morbi blandit cursus risus at ultrices mi tempus imperdiet. Hac habitasse platea dictumst vestibulum rhoncus est pellentesque. Vitae tempus quam pellentesque nec nam aliquam sem. Sit amet nisl suscipit adipiscing bibendum est ultricies integer.</span></p><figure class=\"image\"><img src=\"http://web.utrack/uploads/images/carousel_2.jpg\"></figure>",
    "cover": "http://web.utrack/images/images.png",
    "tags": "deserunt cupidatat elit tempor duis"
  },
  {
    "title": "Eu ut incididunt ad elit sunt sint laborum laborum et nostrud.",
    "body": "<figure class=\"image image-style-align-left\"><img src=\"http://web.utrack/uploads/images/carousel_1(4).jpg\"></figure><p style=\"margin-left:280px;\"><span style=\"color:hsl(0,0%,0%);\">Lorem ipsum dolor sit amet, consectetur adipiscing elit, sed do eiusmod tempor incididunt ut labore et dolore magna aliqua. Urna cursus eget nunc scelerisque viverra. Urna molestie at elementum eu facilisis sed odio morbi. Tristique senectus et netus et malesuada. Feugiat pretium nibh ipsum consequat nisl vel pretium lectus. Id nibh tortor id aliquet lectus proin. Morbi leo urna molestie at elementum eu. Aliquam vestibulum morbi blandit cursus risus at. Aliquet lectus proin nibh nisl. Ullamcorper morbi tincidunt ornare massa eget. Vestibulum morbi blandit cursus risus at ultrices mi tempus imperdiet. Hac habitasse platea dictumst vestibulum rhoncus est pellentesque. Vitae tempus quam pellentesque nec nam aliquam sem. Sit amet nisl suscipit adipiscing bibendum est ultricies integer.</span></p><p style=\"text-align:justify;\"><span style=\"color:hsl(0,0%,0%);\">Lorem ipsum dolor sit amet, consectetur adipiscing elit, sed do eiusmod tempor incididunt ut labore et dolore magna aliqua. Urna cursus eget nunc scelerisque viverra. Urna molestie at elementum eu facilisis sed odio morbi. Tristique senectus et netus et malesuada. Feugiat pretium nibh ipsum consequat nisl vel pretium lectus. Id nibh tortor id aliquet lectus proin. Morbi leo urna molestie at elementum eu. Aliquam vestibulum morbi blandit cursus risus at. Aliquet lectus proin nibh nisl. Ullamcorper morbi tincidunt ornare massa eget. Vestibulum morbi blandit cursus risus at ultrices mi tempus imperdiet. Hac habitasse platea dictumst vestibulum rhoncus est pellentesque. Vitae tempus quam pellentesque nec nam aliquam sem. Sit amet nisl suscipit adipiscing bibendum est ultricies integer.</span></p><figure class=\"image\"><img src=\"http://web.utrack/uploads/images/carousel_2.jpg\"></figure>",
    "cover": "http://web.utrack/images/images.png",
    "tags": "consectetur fugiat voluptate non anim"
  },
  {
    "title": "Consectetur ex aute cillum ad incididunt eiusmod adipisicing dolore pariatur sit consequat voluptate.",
    "body": "<figure class=\"image image-style-align-left\"><img src=\"http://web.utrack/uploads/images/carousel_1(4).jpg\"></figure><p style=\"margin-left:280px;\"><span style=\"color:hsl(0,0%,0%);\">Lorem ipsum dolor sit amet, consectetur adipiscing elit, sed do eiusmod tempor incididunt ut labore et dolore magna aliqua. Urna cursus eget nunc scelerisque viverra. Urna molestie at elementum eu facilisis sed odio morbi. Tristique senectus et netus et malesuada. Feugiat pretium nibh ipsum consequat nisl vel pretium lectus. Id nibh tortor id aliquet lectus proin. Morbi leo urna molestie at elementum eu. Aliquam vestibulum morbi blandit cursus risus at. Aliquet lectus proin nibh nisl. Ullamcorper morbi tincidunt ornare massa eget. Vestibulum morbi blandit cursus risus at ultrices mi tempus imperdiet. Hac habitasse platea dictumst vestibulum rhoncus est pellentesque. Vitae tempus quam pellentesque nec nam aliquam sem. Sit amet nisl suscipit adipiscing bibendum est ultricies integer.</span></p><p style=\"text-align:justify;\"><span style=\"color:hsl(0,0%,0%);\">Lorem ipsum dolor sit amet, consectetur adipiscing elit, sed do eiusmod tempor incididunt ut labore et dolore magna aliqua. Urna cursus eget nunc scelerisque viverra. Urna molestie at elementum eu facilisis sed odio morbi. Tristique senectus et netus et malesuada. Feugiat pretium nibh ipsum consequat nisl vel pretium lectus. Id nibh tortor id aliquet lectus proin. Morbi leo urna molestie at elementum eu. Aliquam vestibulum morbi blandit cursus risus at. Aliquet lectus proin nibh nisl. Ullamcorper morbi tincidunt ornare massa eget. Vestibulum morbi blandit cursus risus at ultrices mi tempus imperdiet. Hac habitasse platea dictumst vestibulum rhoncus est pellentesque. Vitae tempus quam pellentesque nec nam aliquam sem. Sit amet nisl suscipit adipiscing bibendum est ultricies integer.</span></p><figure class=\"image\"><img src=\"http://web.utrack/uploads/images/carousel_2.jpg\"></figure>",
    "cover": "http://web.utrack/images/images.png",
    "tags": "consequat ullamco irure veniam esse"
  },
  {
    "title": "Laboris fugiat est nulla tempor incididunt excepteur veniam ullamco nulla tempor consequat.",
    "body": "<figure class=\"image image-style-align-left\"><img src=\"http://web.utrack/uploads/images/carousel_1(4).jpg\"></figure><p style=\"margin-left:280px;\"><span style=\"color:hsl(0,0%,0%);\">Lorem ipsum dolor sit amet, consectetur adipiscing elit, sed do eiusmod tempor incididunt ut labore et dolore magna aliqua. Urna cursus eget nunc scelerisque viverra. Urna molestie at elementum eu facilisis sed odio morbi. Tristique senectus et netus et malesuada. Feugiat pretium nibh ipsum consequat nisl vel pretium lectus. Id nibh tortor id aliquet lectus proin. Morbi leo urna molestie at elementum eu. Aliquam vestibulum morbi blandit cursus risus at. Aliquet lectus proin nibh nisl. Ullamcorper morbi tincidunt ornare massa eget. Vestibulum morbi blandit cursus risus at ultrices mi tempus imperdiet. Hac habitasse platea dictumst vestibulum rhoncus est pellentesque. Vitae tempus quam pellentesque nec nam aliquam sem. Sit amet nisl suscipit adipiscing bibendum est ultricies integer.</span></p><p style=\"text-align:justify;\"><span style=\"color:hsl(0,0%,0%);\">Lorem ipsum dolor sit amet, consectetur adipiscing elit, sed do eiusmod tempor incididunt ut labore et dolore magna aliqua. Urna cursus eget nunc scelerisque viverra. Urna molestie at elementum eu facilisis sed odio morbi. Tristique senectus et netus et malesuada. Feugiat pretium nibh ipsum consequat nisl vel pretium lectus. Id nibh tortor id aliquet lectus proin. Morbi leo urna molestie at elementum eu. Aliquam vestibulum morbi blandit cursus risus at. Aliquet lectus proin nibh nisl. Ullamcorper morbi tincidunt ornare massa eget. Vestibulum morbi blandit cursus risus at ultrices mi tempus imperdiet. Hac habitasse platea dictumst vestibulum rhoncus est pellentesque. Vitae tempus quam pellentesque nec nam aliquam sem. Sit amet nisl suscipit adipiscing bibendum est ultricies integer.</span></p><figure class=\"image\"><img src=\"http://web.utrack/uploads/images/carousel_2.jpg\"></figure>",
    "cover": "http://web.utrack/images/images.png",
    "tags": "et anim et proident quis"
  },
  {
    "title": "Lorem minim aliqua officia minim minim labore.",
    "body": "<figure class=\"image image-style-align-left\"><img src=\"http://web.utrack/uploads/images/carousel_1(4).jpg\"></figure><p style=\"margin-left:280px;\"><span style=\"color:hsl(0,0%,0%);\">Lorem ipsum dolor sit amet, consectetur adipiscing elit, sed do eiusmod tempor incididunt ut labore et dolore magna aliqua. Urna cursus eget nunc scelerisque viverra. Urna molestie at elementum eu facilisis sed odio morbi. Tristique senectus et netus et malesuada. Feugiat pretium nibh ipsum consequat nisl vel pretium lectus. Id nibh tortor id aliquet lectus proin. Morbi leo urna molestie at elementum eu. Aliquam vestibulum morbi blandit cursus risus at. Aliquet lectus proin nibh nisl. Ullamcorper morbi tincidunt ornare massa eget. Vestibulum morbi blandit cursus risus at ultrices mi tempus imperdiet. Hac habitasse platea dictumst vestibulum rhoncus est pellentesque. Vitae tempus quam pellentesque nec nam aliquam sem. Sit amet nisl suscipit adipiscing bibendum est ultricies integer.</span></p><p style=\"text-align:justify;\"><span style=\"color:hsl(0,0%,0%);\">Lorem ipsum dolor sit amet, consectetur adipiscing elit, sed do eiusmod tempor incididunt ut labore et dolore magna aliqua. Urna cursus eget nunc scelerisque viverra. Urna molestie at elementum eu facilisis sed odio morbi. Tristique senectus et netus et malesuada. Feugiat pretium nibh ipsum consequat nisl vel pretium lectus. Id nibh tortor id aliquet lectus proin. Morbi leo urna molestie at elementum eu. Aliquam vestibulum morbi blandit cursus risus at. Aliquet lectus proin nibh nisl. Ullamcorper morbi tincidunt ornare massa eget. Vestibulum morbi blandit cursus risus at ultrices mi tempus imperdiet. Hac habitasse platea dictumst vestibulum rhoncus est pellentesque. Vitae tempus quam pellentesque nec nam aliquam sem. Sit amet nisl suscipit adipiscing bibendum est ultricies integer.</span></p><figure class=\"image\"><img src=\"http://web.utrack/uploads/images/carousel_2.jpg\"></figure>",
    "cover": "http://web.utrack/images/images.png",
    "tags": "pariatur aliquip do nostrud laborum"
  },
  {
    "title": "Ex id exercitation quis eu proident dolor proident eu occaecat reprehenderit qui officia minim.",
    "body": "<figure class=\"image image-style-align-left\"><img src=\"http://web.utrack/uploads/images/carousel_1(4).jpg\"></figure><p style=\"margin-left:280px;\"><span style=\"color:hsl(0,0%,0%);\">Lorem ipsum dolor sit amet, consectetur adipiscing elit, sed do eiusmod tempor incididunt ut labore et dolore magna aliqua. Urna cursus eget nunc scelerisque viverra. Urna molestie at elementum eu facilisis sed odio morbi. Tristique senectus et netus et malesuada. Feugiat pretium nibh ipsum consequat nisl vel pretium lectus. Id nibh tortor id aliquet lectus proin. Morbi leo urna molestie at elementum eu. Aliquam vestibulum morbi blandit cursus risus at. Aliquet lectus proin nibh nisl. Ullamcorper morbi tincidunt ornare massa eget. Vestibulum morbi blandit cursus risus at ultrices mi tempus imperdiet. Hac habitasse platea dictumst vestibulum rhoncus est pellentesque. Vitae tempus quam pellentesque nec nam aliquam sem. Sit amet nisl suscipit adipiscing bibendum est ultricies integer.</span></p><p style=\"text-align:justify;\"><span style=\"color:hsl(0,0%,0%);\">Lorem ipsum dolor sit amet, consectetur adipiscing elit, sed do eiusmod tempor incididunt ut labore et dolore magna aliqua. Urna cursus eget nunc scelerisque viverra. Urna molestie at elementum eu facilisis sed odio morbi. Tristique senectus et netus et malesuada. Feugiat pretium nibh ipsum consequat nisl vel pretium lectus. Id nibh tortor id aliquet lectus proin. Morbi leo urna molestie at elementum eu. Aliquam vestibulum morbi blandit cursus risus at. Aliquet lectus proin nibh nisl. Ullamcorper morbi tincidunt ornare massa eget. Vestibulum morbi blandit cursus risus at ultrices mi tempus imperdiet. Hac habitasse platea dictumst vestibulum rhoncus est pellentesque. Vitae tempus quam pellentesque nec nam aliquam sem. Sit amet nisl suscipit adipiscing bibendum est ultricies integer.</span></p><figure class=\"image\"><img src=\"http://web.utrack/uploads/images/carousel_2.jpg\"></figure>",
    "cover": "http://web.utrack/images/images.png",
    "tags": "magna sunt commodo proident ea"
  }
]