[{
        "college": "COAHS",
        "course": [
            {
                "name": "Associate of Applied Science in Pharmacy Technology",
                "degree": "Associate"
            },
            {
                "name": "Bachelor of Science in Nursing",
                "degree": "Bachelor"
            },
            {
                "name": "Bachelor of Science in Radiologic Technology",
                "degree": "Bachelor"
            },
            {
                "name": "Bachelor of Science in Pharmacy",
                "degree": "Bachelor"
            },
            {
                "name": "Master of Arts in Nursing",
                "degree": "Master"
            },
            {
                "name": "Master of Science in Radiologic Technology",
                "degree": "Master"
            },
            {
                "name": "Master of Business Administration in Healthcare Management",
                "degree": "Master"
            }
        ]
    },
    {
        "college": "CAL",
        "course": [
            {
                "name": "Bachelor of Arts in Communication and Service Management",
                "degree": "Bachelor"
            },
            {
                "name": "Bachelor in Multimedia Arts Major in Film",
                "degree": "Bachelor"
            },
            {
                "name": "Bachelor in Multimedia Arts Major in Animation",
                "degree": "Bachelor"
            },
            {
                "name": "Associate in Customer Service Communication",
                "degree": "Associate"
            }
        ]
    },
    {
        "college": "CBFS",
        "course": [
            {
                "name": "Bachelor of Science in Business Administration Major in Building and Property Management",
                "degree": "Bachelor"
            },
            {
                "name": "Bachelor of Science in Business Administration Major in Supply Management",
                "degree": "Bachelor"
            },
            {
                "name": "Bachelor of Science in Business Administration Major in Marketing Managment",
                "degree": "Bachelor"
            },
            {
                "name": "Bachelor of Science in Accountancy",
                "degree": "Bachelor"
            },
            {
                "name": "Bachelor of Science in Management Accounting",
                "degree": "Bachelor"
            },
            {
                "name": "Bachelor of Science in Financial Management",
                "degree": "Bachelor"
            },
            {
                "name": "Bachelor of Science in Supply Management",
                "degree": "Bachelor"
            },
            {
                "name": "Bachelor of Science in Office Administration",
                "degree": "Bachelor"
            },
            {
                "name": "Associate in Building and Property Management",
                "degree": "Associate"
            },
            {
                "name": "Associate in Entrepreneurship",
                "degree": "Associate"
            },
            {
                "name": "Associate in Office Management Technology",
                "degree": "Associate"
            },
            {
                "name": "Associate in Sales Management",
                "degree": "Associate"
            },
            {
                "name": "Associate in Supply Management",
                "degree": "Associate"
            }
        ]
    },
    {
        "college": "CCS",
        "course": [
            {
                "name": "Bachelor of Science in Computer Science Major in Application Development",
                "degree": "Bachelor"
            },
            {
                "name": "Bachelor of Science in Computer Science Major in Social Computing",
                "degree": "Bachelor"
            },
            {
                "name": "Bachelor of Science in Computational and Data Sciences",
                "degree": "Bachelor"
            },
            {
                "name": "Bachelor of Science in Information Technology Major in Information and Network Security",
                "degree": "Bachelor"
            },
            {
                "name": "Diploma in Application Development",
                "degree": "Diploma"
            },
            {
                "name": "Diploma in Computer Network Administration",
                "degree": "Diploma"
            }
        ]
    },
    {
        "college": "CCSCE",
        "course": [
            {
                "name": "Bachelor of Science in Civil Engineering",
                "degree": "Bachelor"
            },
            {
                "name": "Bachelor of Science in Construction Engineering Technology (Ladderized Program)",
                "degree": "Bachelor"
            },
            {
                "name": "Diploma in Construction Engineering Management",
                "degree": "Diploma"
            }

        ]
    },
    {
        "college": "COE",
        "course": [
            {
                "name": "Bachelor in Elementary Education Major in Early Childhood Education",
                "degree": "Bachelor"
            },
            {
                "name": "Bachelor in Elementary Education Major in Special Education",
                "degree": "Bachelor"
            },
            {
                "name": "Bachelor of Secondary Education Major in Filipino",
                "degree": "Bachelor"
            },
            {
                "name": "Bachelor of Secondary Education Major in General Science",
                "degree": "Bachelor"
            },
            {
                "name": "Bachelor of Secondary Education Major in English",
                "degree": "Bachelor"
            },
            {
                "name": "Bachelor of Secondary Education Major in Mathematics",
                "degree": "Bachelor"
            },
            {
                "name": "Bachelor of Secondary Education Major in Social Studies",
                "degree": "Bachelor"
            },
            {
                "name": "Master of Arts in Education Major in Educational Management",
                "degree": "Master"
            },
            {
                "name": "Master of Arts in Education Major in Guidance and Counseling",
                "degree": "Master"
            },
            {
                "name": "Master of Arts in Special Education Major in Mental Retardation and Autism",
                "degree": "Master"
            },
            {
                "name": "Doctor of Education Major in Innovative Education Management",
                "degree": "Doctoral"
            },
            {
                "name": "Doctor of Philosophy in Special Education",
                "degree": "Doctoral"
            }
        ]
    },
    {
        "college": "CGPP",
        "course": [
            {
                "name": "Bachelor of Arts in Political Science Major in Local Government Administration",
                "degree": "Bachelor"
            },
            {
                "name": "Bachelor of Arts in Political Science Major in Policy Management",
                "degree": "Bachelor"
            },
            {
                "name": "Bachelor of Arts in Political Science Major in Paralegal Studies",
                "degree": "Bachelor"
            },
            {
                "name": "Certificate in Barangay Governance(Modular Program)",
                "degree": "Certificate"
            },
            {
                "name": "Master in Public Administration Major in Local Governance(regular)",
                "degree": "Master"
            },
            {
                "name": "Master in Public Administration Major in Local Governance(modular)",
                "degree": "Master"
            }
        ]
    },
    {
        "college": "CMLI",
        "course": [
            {
                "name": "Diploma in Marine Transportation",
                "degree": "Bachelor"
            },
            {
                "name": "Bachelor’s Degree in Marine Transportation",
                "degree": "Bachelor"
            },
            {
                "name": "Diploma in Marine Engineering",
                "degree": "Diploma"
            },
            {
                "name": "Bachelor’s Degree in Marine Engineering",
                "degree": "Bachelor"
            }
        ]
    },
    {
        "college": "COS",
        "course": [
            {
                "name": "Bachelor of Science in Psychology",
                "degree": "Bachelor"
            }
        ]
    },
    {
        "college": "CTM",
        "course": [
            {
                "name": "Bachelor of Science in Building Technology Management",
                "degree": "Bachelor"
            },
            {
                "name": "Bachelor of Science in Electrical Technology",
                "degree": "Bachelor"
            },
            {
                "name": "Bachelor of Science in Electronics and Telecommunication Technology",
                "degree": "Bachelor"
            },
            {
                "name": "Bachelor in Automotive Technology",
                "degree": "Bachelor"
            },
            {
                "name": "Diploma in Industrial Facilities Technology",
                "degree": "Diploma"
            },
            {
                "name": "Diploma in Electrical Technology",
                "degree": "Diploma"
            },
            {
                "name": "Associate in Electronics Technology",
                "degree": "Associate"
            },
            {
                "name": "Certificate in Building Technology Management",
                "degree": "Certificate"
            }
        ]
    },
    {
        "college": "CTHM",
        "course": [
            {
                "name": "Bachelor of Science in Hospitality Management",
                "degree": "Bachelor"
            },
            {
                "name": "Bachelor of Science in Tourism Management",
                "degree": "Bachelor"
            },
            {
                "name": "Associate in Hospitality Management",
                "degree": "Associate"
            }
        ]
    },
    {
        "college": "CHK",
        "course": [
            {
                "name": "Bachelor in Physical Wellness Major in Sports Management",
                "degree": "Bachelor"
            }
        ]
    }
]
