[{
        "title": "Software Developer",
        "industry": "Information Technology"
    },
    {
        "title": "Database Administrator",
        "industry": "Information Technology"
    },
    {
        "title": "Computer Hardware Engineer",
        "industry": "Information Technology"
    },
    {
        "title": "Computer System Analyst",
        "industry": "Information Technology"
    },
    {
        "title": "Computer Network Architect",
        "industry": "Information Technology"
    },
    {
        "title": "Pharmacy Technician",
        "industry": "Health Care"
    },
    {
        "title": "Medical Assistant",
        "industry": "Health Care"
    },
    {
        "title": "Phlebotomists",
        "industry": "Health Care"
    },
    {
        "title": "Dental Assistants",
        "industry": "Health Care"
    },
    {
        "title": "Medical Records and Health Information Technicians",
        "industry": "Health Care"
    },
    {
        "title": "Urban Planner",
        "industry": "Media"
    },
    {
        "title": "Lawyer",
        "industry": "Media"
    },
    {
        "title": "Librarian",
        "industry": "Media"
    },
    {
        "title": "Diplomat",
        "industry": "Media"
    },
    {
        "title": "Teacher",
        "industry": "Media"
    },
    {
        "title": "Financial Analyst",
        "industry": "Business services / Accounting and Legal"
    },
    {
        "title": "Financial Planner",
        "industry": "Business services / Accounting and Legal"
    },
    {
        "title": "Investor Relations Associate",
        "industry": "Business services / Accounting and Legal"
    },
    {
        "title": "Budget Analyst",
        "industry": "Business services / Accounting and Legal"
    },
    {
        "title": "Actuary",
        "industry": "Business services / Accounting and Legal"
    },
    {
        "title": "Aerospace Enginner",
        "industry": "Construction, repair, and maintenance"
    },
    {
        "title": "Agricultural Engineer",
        "industry": "Construction, repair, and maintenance"
    },
    {
        "title": "Automotive Enginner",
        "industry": "Construction, repair, and maintenance"
    },
    {
        "title": "Biomedical Enginner",
        "industry": "Construction, repair, and maintenance"
    },
    {
        "title": "Civil Enginner",
        "industry": "Construction, repair, and maintenance"
    },
    {
        "title": "Tutors",
        "industry": "Education"
    },
    {
        "title": "Teacher",
        "industry": "Education"
    },
    {
        "title": "Intructors Position",
        "industry": "Education"
    },
    {
        "title": "Vice President of Student Affairs",
        "industry": "Education"
    },
    {
        "title": "Technical Trainer",
        "industry": "Education"
    },
    {
        "title": "Government Relations Manager",
        "industry": "Government"
    },
    {
        "title": "Consultant",
        "industry": "Government"
    },
    {
        "title": "Community Relations Manager",
        "industry": "Government"
    },
    {
        "title": "Public Relations and Marketing Manager",
        "industry": "Government"
    },
    {
        "title": "Deck Officer",
        "industry": "Shipping Industry"
    },
    {
        "title": "Analyst Maritime Operations",
        "industry": "Shipping Industry"
    },
    {
        "title": "First Engineer",
        "industry": "Shipping Industry"
    },
    {
        "title": "Seaman",
        "industry": "Shipping Industry"
    },
    {
        "title": "Science Research Assistant",
        "industry": "Medical"
    },
    {
        "title": "Chemist",
        "industry": "Medical"
    },
    {
        "title": "Clinical Research Scientist",
        "industry": "Medical"
    },
    {
        "title": "Scientist",
        "industry": "Medical"
    },
    {
        "title": "Biophysics",
        "industry": "Medical"
    },
    {
        "title": "Electrical Engineer",
        "industry": "Industrial Technology Management"
    },
    {
        "title": "Electronics Engineer",
        "industry": "Industrial Technology Management"
    },
    {
        "title": "Automotive Technician",
        "industry": "Industrial Technology Management"
    },
    {
        "title": "Automotive Mechanic",
        "industry": "Industrial Technology Management"
    },
    {
        "title": "Truck Mechanic",
        "industry": "Industrial Technology Management"
    },
    {
        "title": "Hotel Manager",
        "industry": "Restaurant, Bars and Foor Services"
    },
    {
        "title": "Spa Manager",
        "industry": "Restaurant, Bars and Foor Services"
    },
    {
        "title": "Travel Agent",
        "industry": "Restaurant, Bars and Foor Services"
    },
    {
        "title": "Tour Operator",
        "industry": "Restaurant, Bars and Foor Services"
    },
    {
        "title": "Event and Conference Organizer",
        "industry": "Restaurant, Bars and Foor Services"
    }
]
